%time,field.header.seq,field.header.stamp,field.header.frame_id,field.latitude,field.longitude,field.alt,field.utm_easting,field.utm_northing,field.zone,field.letter
1581295803310395002,0,0,GPS data,42.3371666667,71.0897966667,10.8,672158.959017,4689327.58013,42,T
1581295804314517974,0,0,GPS data,42.3371433333,71.0897983333,10.7,672159.16,4689324.99251,42,T
1581295805307516098,0,0,GPS data,42.33712,71.0897983333,10.5,672159.223675,4689322.40152,42,T
1581295806308322906,0,0,GPS data,42.3370983333,71.0897966667,10.4,672159.145496,4689319.99223,42,T
1581295807312625885,0,0,GPS data,42.3370766667,71.08979,10.1,672158.655394,4689317.57281,42,T
1581295808307625055,0,0,GPS data,42.3370533333,71.08978,10.0,672157.895226,4689314.96158,42,T
1581295809311835050,0,0,GPS data,42.3370283333,71.0897566667,9.9,672156.041148,4689312.13828,42,T
1581295810305303096,0,0,GPS data,42.3370066667,71.089725,9.8,672153.491435,4689309.66825,42,T
1581295811306241989,0,0,GPS data,42.336995,71.0896833333,9.7,672150.090589,4689308.28839,42,T
1581295812307666063,0,0,GPS data,42.3369933333,71.0896416667,9.6,672146.662453,4689308.01897,42,T
1581295813305380105,0,0,GPS data,42.3370033333,71.0896016667,9.5,672143.33979,4689309.04841,42,T
1581295814306289911,0,0,GPS data,42.3370233333,71.0895683333,9.4,672140.539071,4689311.20178,42,T
1581295815305609941,0,0,GPS data,42.33705,71.089545,9.4,672138.544006,4689314.11567,42,T
1581295816304625988,0,0,GPS data,42.3370816667,71.0895383333,9.5,672137.908371,4689317.61852,42,T
1581295817306751012,0,0,GPS data,42.3371116667,71.089545,9.5,672138.375741,4689320.96329,42,T
1581295818313252925,0,0,GPS data,42.3371383333,71.0895633333,9.9,672139.813355,4689323.96153,42,T
1581295819312952041,0,0,GPS data,42.33716,71.0895933333,10.0,672142.22576,4689326.42818,42,T
1581295820312932968,0,0,GPS data,42.3371716667,71.0896266667,10.0,672144.940064,4689327.79116,42,T
1581295821312877893,0,0,GPS data,42.337175,71.089665,10.1,672148.089028,4689328.23891,42,T
1581295822307722091,0,0,GPS data,42.3371683333,71.0897016667,10.2,672151.127973,4689327.57286,42,T
1581295823308357954,0,0,GPS data,42.3371533333,71.089735,10.2,672153.915045,4689325.97471,42,T
1581295824308238983,0,0,GPS data,42.3371316667,71.08976,10.2,672156.033776,4689323.61941,42,T
1581295825307041883,0,0,GPS data,42.337105,71.0897733333,10.1,672157.205003,4689320.68527,42,T
1581295826302551984,0,0,GPS data,42.3370766667,71.089775,10.2,672157.41963,4689317.54244,42,T
1581295827302114963,0,0,GPS data,42.3370516667,71.0897666667,10.3,672156.801317,4689314.74951,42,T
1581295828307885885,0,0,GPS data,42.3370333333,71.0897516667,10.4,672155.615582,4689312.68337,42,T
1581295829314151048,0,0,GPS data,42.3370183333,71.0897333333,10.7,672154.146135,4689310.98061,42,T
1581295830308365106,0,0,GPS data,42.3370066667,71.0897133333,10.9,672152.530284,4689309.64463,42,T
1581295831307641983,0,0,GPS data,42.3369983333,71.0896916667,11.1,672150.768029,4689308.67541,42,T
1581295832307209968,0,0,GPS data,42.336995,71.0896666667,11.2,672148.717515,4689308.25465,42,T
1581295833307842969,0,0,GPS data,42.3369983333,71.0896366667,11.3,672146.236888,4689308.56406,42,T
1581295834308445930,0,0,GPS data,42.3370066667,71.0896033333,11.3,672143.468002,4689309.42193,42,T
1581295835307323932,0,0,GPS data,42.337025,71.0895733333,11.2,672140.946445,4689311.39697,42,T
1581295836305866956,0,0,GPS data,42.3370483333,71.08955,11.1,672138.960476,4689313.94072,42,T
1581295837311150074,0,0,GPS data,42.3370783333,71.0895416667,11.3,672138.192081,4689317.25513,42,T
1581295838315931081,0,0,GPS data,42.3371083333,71.089545,11.5,672138.384837,4689320.59314,42,T
1581295839309513092,0,0,GPS data,42.3371366667,71.0895616667,11.6,672139.680596,4689323.77309,42,T
1581295840313432931,0,0,GPS data,42.3371583333,71.08959,11.7,672141.955694,4689326.23636,42,T
1581295841312691926,0,0,GPS data,42.3371716667,71.0896283333,11.9,672145.077371,4689327.79453,42,T
1581295842307895898,0,0,GPS data,42.33717,71.0896733333,12.0,672148.789206,4689327.70057,42,T
1581295843307852983,0,0,GPS data,42.33716,71.0897166667,12.1,672152.386475,4689326.67787,42,T
1581295844307593107,0,0,GPS data,42.3371366667,71.0897533333,12.2,672155.470903,4689324.16112,42,T
1581295845314594030,0,0,GPS data,42.337105,71.0897766667,12.2,672157.479617,4689320.69202,42,T
1581295846307643890,0,0,GPS data,42.33707,71.0897816667,12.1,672157.987051,4689316.81566,42,T
1581295847308270931,0,0,GPS data,42.3370366667,71.0897683333,12.2,672156.979558,4689313.08725,42,T
1581295848315707921,0,0,GPS data,42.3370083333,71.08974,12.2,672154.722653,4689309.88369,42,T
1581295849307806015,0,0,GPS data,42.33699,71.0897,12.4,672151.477306,4689307.76693,42,T
1581295850307423114,0,0,GPS data,42.3369866667,71.089655,12.4,672147.779104,4689307.30568,42,T
1581295851307976007,0,0,GPS data,42.336995,71.08961,12.4,672144.049066,4689308.13993,42,T
1581295852307580947,0,0,GPS data,42.3370183333,71.0895716667,12.2,672140.827329,4689310.65332,42,T
1581295853307333946,0,0,GPS data,42.33705,71.0895483333,12.3,672138.818621,4689314.12242,42,T
1581295854308371067,0,0,GPS data,42.3370866667,71.0895433333,12.2,672138.30665,4689318.18385,42,T
1581295855308233022,0,0,GPS data,42.3371233333,71.08956,12.3,672139.579671,4689322.28915,42,T
1581295856316711902,0,0,GPS data,42.3371533333,71.0895966667,12.3,672142.518565,4689325.69465,42,T
1581295857314629077,0,0,GPS data,42.3371683333,71.0896483333,12.3,672146.73415,4689327.46488,42,T
1581295858314943075,0,0,GPS data,42.3371666667,71.0897016667,12.2,672151.132521,4689327.38779,42,T
1581295859307944059,0,0,GPS data,42.3371466667,71.0897483333,12.2,672155.031693,4689325.26142,42,T
1581295860308995962,0,0,GPS data,42.3371133333,71.0897766667,12.1,672157.456876,4689321.61737,42,T
1581295861307635068,0,0,GPS data,42.3370733333,71.0897816667,12.1,672157.977955,4689317.1858,42,T
1581295862307254076,0,0,GPS data,42.337035,71.0897633333,12.2,672156.572184,4689312.89206,42,T
1581295863307488918,0,0,GPS data,42.3370066667,71.0897266667,12.4,672153.628743,4689309.67162,42,T
1581295864307971954,0,0,GPS data,42.3369933333,71.08968,12.5,672149.820522,4689308.09658,42,T
1581295865307986974,0,0,GPS data,42.336995,71.08963,12.5,672145.696754,4689308.18042,42,T
1581295866311042070,0,0,GPS data,42.3370133333,71.0895866667,12.3,672142.076738,4689310.12847,42,T
1581295867309623956,0,0,GPS data,42.3370466667,71.089555,12.2,672139.376945,4689313.76578,42,T
1581295868309386968,0,0,GPS data,42.3370916667,71.0895466667,12.0,672138.567621,4689318.74581,42,T
1581295869308710098,0,0,GPS data,42.3371433333,71.0895566667,11.9,672139.250484,4689324.50325,42,T
1581295870308494091,0,0,GPS data,42.3372033333,71.0895783333,12.0,672140.871755,4689331.20965,42,T
1581295871309772968,0,0,GPS data,42.3372716667,71.0896033333,12.3,672142.744896,4689338.84816,42,T
1581295872310583114,0,0,GPS data,42.3373466667,71.0896283333,12.6,672144.599841,4689347.22695,42,T
1581295873310118913,0,0,GPS data,42.337425,71.0896566667,12.7,672146.720298,4689355.98263,42,T
1581295874310242891,0,0,GPS data,42.337505,71.089685,12.7,672148.836201,4689364.92339,42,T
1581295875301908016,0,0,GPS data,42.3375883333,71.0897133333,12.6,672150.943001,4689374.23428,42,T
1581295876300106048,0,0,GPS data,42.3376733333,71.0897433333,12.4,672153.182552,4689383.73362,42,T
1581295877299283981,0,0,GPS data,42.3377583333,71.0897716667,12.2,672155.28479,4689393.22959,42,T
1581295878300645112,0,0,GPS data,42.3378416667,71.0897966667,12.3,672157.11696,4689402.53374,42,T
1581295879299324989,0,0,GPS data,42.3379216667,71.0898133333,12.9,672158.271693,4689411.45087,42,T
1581295880298914909,0,0,GPS data,42.3380016667,71.08983,13.4,672159.426423,4689420.36801,42,T
1581295881298593997,0,0,GPS data,42.3380816667,71.0898466667,13.7,672160.581149,4689429.28515,42,T
1581295882299525976,0,0,GPS data,42.3381566667,71.089865,14.6,672161.886821,4689437.65045,42,T
1581295883300384044,0,0,GPS data,42.3382333333,71.0898883333,15.9,672163.599855,4689446.21094,42,T
1581295884297540903,0,0,GPS data,42.3382983333,71.0899166667,17.8,672165.756638,4689453.48607,42,T
1581295885300364017,0,0,GPS data,42.3383733333,71.0899516667,18.9,672168.435341,4689461.88512,42,T
1581295886299310922,0,0,GPS data,42.3384483333,71.08998,20.9,672170.56482,4689470.27067,42,T
1581295887299499034,0,0,GPS data,42.33853,71.09002,21.0,672173.637225,4689479.42012,42,T
1581295888299592018,0,0,GPS data,42.338605,71.090055,21.9,672176.315907,4689487.81918,42,T
1581295889299912929,0,0,GPS data,42.3386766667,71.09009,22.3,672179.003679,4689495.84809,42,T
1581295890299340009,0,0,GPS data,42.33875,71.0901233333,22.2,672181.549591,4689504.0587,42,T
1581295891300889968,0,0,GPS data,42.3388366667,71.0901633333,21.5,672184.608317,4689513.76337,42,T
1581295892299213886,0,0,GPS data,42.3389266667,71.0902033333,21.2,672187.657935,4689523.83819,42,T
1581295893297487974,0,0,GPS data,42.339015,71.090245,20.8,672190.849395,4689533.73132,42,T
1581295894297905921,0,0,GPS data,42.3391016667,71.0902916667,20.2,672194.457303,4689543.4495,42,T
1581295895298388957,0,0,GPS data,42.339185,71.0903366667,20.0,672197.936996,4689552.79417,42,T
1581295896297713994,0,0,GPS data,42.3392683333,71.0903783333,19.3,672201.142075,4689562.13209,42,T
1581295897298043966,0,0,GPS data,42.3393416667,71.0904133333,18.4,672203.825234,4689570.34608,42,T
1581295898298229932,0,0,GPS data,42.339405,71.0904433333,17.5,672206.123779,4689577.43953,42,T
1581295899302160024,0,0,GPS data,42.339445,71.0904616667,17.0,672207.524904,4689581.91836,42,T
1581295900300754070,0,0,GPS data,42.3394583333,71.09047,16.8,672208.175015,4689583.4158,42,T
1581295901300606012,0,0,GPS data,42.3394583333,71.09047,16.6,672208.175015,4689583.4158,42,T
1581295902301089048,0,0,GPS data,42.3394583333,71.09047,16.6,672208.175015,4689583.4158,42,T
1581295903301417112,0,0,GPS data,42.3394583333,71.09047,16.6,672208.175015,4689583.4158,42,T
1581295904301673889,0,0,GPS data,42.3394583333,71.09047,16.6,672208.175015,4689583.4158,42,T
1581295905301887035,0,0,GPS data,42.3394583333,71.09047,16.7,672208.175015,4689583.4158,42,T
1581295906301047086,0,0,GPS data,42.3394583333,71.09047,16.7,672208.175015,4689583.4158,42,T
1581295907301424026,0,0,GPS data,42.3394583333,71.09047,16.7,672208.175015,4689583.4158,42,T
1581295908301623106,0,0,GPS data,42.3394583333,71.09047,16.7,672208.175015,4689583.4158,42,T
1581295909300596952,0,0,GPS data,42.3394583333,71.09047,16.7,672208.175015,4689583.4158,42,T
1581295910301779985,0,0,GPS data,42.3394583333,71.09047,16.7,672208.175015,4689583.4158,42,T
1581295911301455974,0,0,GPS data,42.3394583333,71.09047,16.7,672208.175015,4689583.4158,42,T
1581295912300685882,0,0,GPS data,42.3394583333,71.09047,16.7,672208.175015,4689583.4158,42,T
1581295913300632953,0,0,GPS data,42.3394583333,71.09047,16.7,672208.175015,4689583.4158,42,T
1581295914301470994,0,0,GPS data,42.3394583333,71.09047,16.7,672208.175015,4689583.4158,42,T
1581295915301233053,0,0,GPS data,42.3394583333,71.09047,16.7,672208.175015,4689583.4158,42,T
1581295916300595998,0,0,GPS data,42.3394583333,71.09047,16.7,672208.175015,4689583.4158,42,T
1581295917300540924,0,0,GPS data,42.3394583333,71.09047,16.7,672208.175015,4689583.4158,42,T
1581295918300558090,0,0,GPS data,42.3394566667,71.09047,16.7,672208.179565,4689583.23073,42,T
1581295919300816059,0,0,GPS data,42.3394566667,71.09047,16.7,672208.179565,4689583.23073,42,T
1581295920301475048,0,0,GPS data,42.3394566667,71.09047,16.7,672208.179565,4689583.23073,42,T
1581295921300642967,0,0,GPS data,42.3394566667,71.09047,16.7,672208.179565,4689583.23073,42,T
1581295922300590991,0,0,GPS data,42.3394566667,71.09047,16.7,672208.179565,4689583.23073,42,T
1581295923300954103,0,0,GPS data,42.3394566667,71.09047,16.7,672208.179565,4689583.23073,42,T
1581295924300399065,0,0,GPS data,42.3394566667,71.09047,16.7,672208.179565,4689583.23073,42,T
1581295925300668001,0,0,GPS data,42.3394566667,71.09047,16.7,672208.179565,4689583.23073,42,T
1581295926302329063,0,0,GPS data,42.3394566667,71.09047,16.7,672208.179565,4689583.23073,42,T
1581295927300947904,0,0,GPS data,42.3394566667,71.09047,16.7,672208.179565,4689583.23073,42,T
1581295928300767898,0,0,GPS data,42.3394566667,71.09047,16.7,672208.179565,4689583.23073,42,T
1581295929300896883,0,0,GPS data,42.3394566667,71.09047,16.7,672208.179565,4689583.23073,42,T
1581295930300534009,0,0,GPS data,42.3394566667,71.0904716667,17.0,672208.316867,4689583.2341,42,T
1581295931300755977,0,0,GPS data,42.33947,71.0904783333,16.9,672208.829675,4689584.72817,42,T
1581295932301827907,0,0,GPS data,42.339495,71.09049,17.0,672209.722539,4689587.52786,42,T
1581295933301352977,0,0,GPS data,42.3395233333,71.0905,17.0,672210.469001,4689590.69432,42,T
1581295934300843954,0,0,GPS data,42.3395483333,71.090505,17.0,672210.812656,4689593.4805,42,T
1581295935301520109,0,0,GPS data,42.3395716667,71.090505,16.9,672210.748956,4689596.07149,42,T
1581295936300905942,0,0,GPS data,42.3395933333,71.0904966667,16.6,672210.003297,4689598.46054,42,T
1581295937301153898,0,0,GPS data,42.3396183333,71.0904716667,16.4,672207.875523,4689601.18596,42,T
1581295938301475048,0,0,GPS data,42.3396516667,71.090425,16.3,672203.940081,4689604.79286,42,T
1581295939301132917,0,0,GPS data,42.33969,71.0903533333,16.2,672197.931471,4689608.90435,42,T
1581295940300167083,0,0,GPS data,42.3397333333,71.09026,16.1,672190.124302,4689613.52717,42,T
1581295941300718069,0,0,GPS data,42.33978,71.0901516667,16.3,672181.072334,4689618.48977,42,T
1581295942301017999,0,0,GPS data,42.33983,71.09003,16.5,672170.912872,4689623.79552,42,T
1581295943301652908,0,0,GPS data,42.3398816667,71.0899,16.7,672160.062372,4689629.26948,42,T
1581295944301830053,0,0,GPS data,42.3399366667,71.0897666667,16.8,672148.92819,4689635.10685,42,T
1581295945300859928,0,0,GPS data,42.3399916667,71.089625,16.7,672137.107524,4689640.92737,42,T
1581295946301498889,0,0,GPS data,42.34005,71.089485,16.7,672125.415083,4689647.12143,42,T
1581295947301446914,0,0,GPS data,42.3401066667,71.089345,16.8,672113.72721,4689653.13043,42,T
1581295948301425933,0,0,GPS data,42.3401633333,71.089205,16.7,672102.039359,4689659.13945,42,T
1581295949299288034,0,0,GPS data,42.34022,71.0890666667,16.6,672090.488828,4689665.15186,42,T
1581295950300677061,0,0,GPS data,42.3402783333,71.088925,16.6,672078.659171,4689671.34262,42,T
1581295951300815105,0,0,GPS data,42.3403366667,71.0887816667,16.4,672066.692235,4689677.53002,42,T
1581295952300542116,0,0,GPS data,42.3403966667,71.0886316667,16.2,672054.171575,4689683.88902,42,T
1581295953301148891,0,0,GPS data,42.3404566667,71.0884766667,16.0,672041.23904,4689690.23793,42,T
1581295954302164077,0,0,GPS data,42.3405233333,71.0883216667,16.2,672028.288347,4689697.32714,42,T
1581295955301712036,0,0,GPS data,42.34059,71.0881616667,16.2,672014.925783,4689704.40626,42,T
1581295956300911903,0,0,GPS data,42.340655,71.0880016667,16.1,672001.567791,4689711.30034,42,T
1581295957300158977,0,0,GPS data,42.3407183333,71.0878416667,16.0,671988.214371,4689718.00937,42,T
1581295958297759056,0,0,GPS data,42.34078,71.087685,15.9,671975.140119,4689724.54009,42,T
1581295959301093101,0,0,GPS data,42.34084,71.0875333333,15.8,671962.482333,4689730.89588,42,T
1581295960299586057,0,0,GPS data,42.3408983333,71.087385,15.6,671950.103711,4689737.07337,42,T
1581295961296360969,0,0,GPS data,42.340955,71.0872416667,15.5,671938.141551,4689743.07591,42,T
1581295962298154115,0,0,GPS data,42.3410133333,71.0871033333,15.4,671926.586765,4689749.27366,42,T
1581295963297760009,0,0,GPS data,42.3410733333,71.0869733333,15.3,671915.71395,4689755.67334,42,T
1581295964296655893,0,0,GPS data,42.3411333333,71.0868616667,15.2,671906.351436,4689762.11011,42,T
1581295965295252084,0,0,GPS data,42.3411883333,71.086775,15.2,671899.062038,4689768.04222,42,T
1581295966295912981,0,0,GPS data,42.3412366667,71.0867066667,15.4,671893.301099,4689773.27112,42,T
1581295967295989990,0,0,GPS data,42.34127,71.0866533333,15.5,671888.816726,4689776.86471,42,T
1581295968296811103,0,0,GPS data,42.3412983333,71.086615,15.5,671885.581663,4689779.93342,42,T
1581295969296094894,0,0,GPS data,42.341315,71.0865883333,15.8,671883.33948,4689781.73022,42,T
1581295970298866987,0,0,GPS data,42.3413233333,71.086575,15.8,671882.218389,4689782.62862,42,T
1581295971295597076,0,0,GPS data,42.3413333333,71.0865766667,16.0,671882.328437,4689783.74241,42,T
1581295972302459955,0,0,GPS data,42.341335,71.0865766667,16.0,671882.323895,4689783.92748,42,T
1581295973300715923,0,0,GPS data,42.341335,71.0865766667,16.1,671882.323895,4689783.92748,42,T
1581295974298614025,0,0,GPS data,42.341335,71.0865766667,16.1,671882.323895,4689783.92748,42,T
1581295975297386884,0,0,GPS data,42.341335,71.0865766667,16.1,671882.323895,4689783.92748,42,T
1581295976300729036,0,0,GPS data,42.341335,71.0865766667,16.1,671882.323895,4689783.92748,42,T
1581295977299968957,0,0,GPS data,42.341335,71.0865766667,16.1,671882.323895,4689783.92748,42,T
1581295978299664020,0,0,GPS data,42.341335,71.0865766667,16.1,671882.323895,4689783.92748,42,T
1581295979300141096,0,0,GPS data,42.341335,71.0865766667,16.1,671882.323895,4689783.92748,42,T
1581295980300957918,0,0,GPS data,42.341335,71.0865766667,16.1,671882.323895,4689783.92748,42,T
1581295981299645900,0,0,GPS data,42.341335,71.0865766667,16.1,671882.323895,4689783.92748,42,T
1581295982300184965,0,0,GPS data,42.341335,71.0865766667,16.1,671882.323895,4689783.92748,42,T
1581295983300555944,0,0,GPS data,42.341335,71.0865766667,16.1,671882.323895,4689783.92748,42,T
1581295984300189971,0,0,GPS data,42.341335,71.0865766667,16.1,671882.323895,4689783.92748,42,T
1581295985300219058,0,0,GPS data,42.341335,71.0865766667,16.1,671882.323895,4689783.92748,42,T
1581295986298073053,0,0,GPS data,42.341335,71.0865766667,16.1,671882.323895,4689783.92748,42,T
1581295987299806118,0,0,GPS data,42.341335,71.0865766667,16.1,671882.323895,4689783.92748,42,T
1581295988297208070,0,0,GPS data,42.341335,71.0865766667,16.1,671882.323895,4689783.92748,42,T
1581295989297874927,0,0,GPS data,42.341335,71.0865766667,16.1,671882.323895,4689783.92748,42,T
1581295990297939062,0,0,GPS data,42.341335,71.0865766667,16.1,671882.323895,4689783.92748,42,T
1581295991298562049,0,0,GPS data,42.341335,71.0865766667,16.1,671882.323895,4689783.92748,42,T
1581295992299828052,0,0,GPS data,42.341335,71.0865766667,16.1,671882.323895,4689783.92748,42,T
1581295993297467947,0,0,GPS data,42.341335,71.0865766667,16.1,671882.323895,4689783.92748,42,T
1581295994298523902,0,0,GPS data,42.341335,71.0865766667,16.2,671882.323895,4689783.92748,42,T
1581295995298599004,0,0,GPS data,42.341335,71.0865766667,16.2,671882.323895,4689783.92748,42,T
1581295996297525882,0,0,GPS data,42.341335,71.0865766667,16.2,671882.323895,4689783.92748,42,T
1581295997297188043,0,0,GPS data,42.341335,71.0865766667,16.2,671882.323895,4689783.92748,42,T
1581295998298387050,0,0,GPS data,42.341335,71.0865766667,16.2,671882.323895,4689783.92748,42,T
1581295999297714948,0,0,GPS data,42.341335,71.0865766667,16.2,671882.323895,4689783.92748,42,T
1581296000297329902,0,0,GPS data,42.341335,71.0865766667,16.1,671882.323895,4689783.92748,42,T
1581296001298001050,0,0,GPS data,42.341335,71.0865766667,16.1,671882.323895,4689783.92748,42,T
1581296002297276973,0,0,GPS data,42.341335,71.0865783333,16.1,671882.461193,4689783.93085,42,T
1581296003296588897,0,0,GPS data,42.341335,71.0865783333,16.1,671882.461193,4689783.93085,42,T
1581296004299350976,0,0,GPS data,42.341335,71.0865783333,16.1,671882.461193,4689783.93085,42,T
1581296005299329996,0,0,GPS data,42.341335,71.0865783333,16.1,671882.461193,4689783.93085,42,T
1581296006297842979,0,0,GPS data,42.341335,71.0865783333,16.1,671882.461193,4689783.93085,42,T
1581296007296314001,0,0,GPS data,42.341335,71.0865783333,16.1,671882.461193,4689783.93085,42,T
1581296008296097993,0,0,GPS data,42.341335,71.0865783333,16.1,671882.461193,4689783.93085,42,T
1581296009299129009,0,0,GPS data,42.341335,71.0865783333,16.1,671882.461193,4689783.93085,42,T
1581296010307550907,0,0,GPS data,42.341335,71.0865783333,16.1,671882.461193,4689783.93085,42,T
1581296011296746015,0,0,GPS data,42.341335,71.0865783333,16.1,671882.461193,4689783.93085,42,T
1581296012296911001,0,0,GPS data,42.341335,71.0865783333,16.1,671882.461193,4689783.93085,42,T
1581296013298305034,0,0,GPS data,42.341335,71.0865783333,16.1,671882.461193,4689783.93085,42,T
1581296014299510002,0,0,GPS data,42.341335,71.0865783333,16.1,671882.461193,4689783.93085,42,T
1581296015299542903,0,0,GPS data,42.341335,71.0865783333,16.1,671882.461193,4689783.93085,42,T
1581296016299477100,0,0,GPS data,42.341335,71.0865783333,16.1,671882.461193,4689783.93085,42,T
1581296017296087980,0,0,GPS data,42.341335,71.0865783333,16.1,671882.461193,4689783.93085,42,T
1581296018296152114,0,0,GPS data,42.341335,71.0865783333,16.2,671882.461193,4689783.93085,42,T
1581296019297576904,0,0,GPS data,42.3413366667,71.0865833333,15.9,671882.868545,4689784.12603,42,T
1581296020296720027,0,0,GPS data,42.341345,71.0865783333,15.6,671882.433944,4689785.04128,42,T
1581296021296478986,0,0,GPS data,42.341365,71.0865566667,15.2,671880.594573,4689787.21833,42,T
1581296022298254013,0,0,GPS data,42.3413966667,71.0865166667,14.8,671877.213138,4689790.65381,42,T
1581296023295896053,0,0,GPS data,42.3414383333,71.08646,14.4,671872.431482,4689795.16603,42,T
1581296024300209045,0,0,GPS data,42.34149,71.0863883333,13.9,671866.386907,4689800.75835,42,T
1581296025299770116,0,0,GPS data,42.34155,71.0863033333,13.6,671859.221257,4689807.24908,42,T
1581296026299624919,0,0,GPS data,42.3416116667,71.08621,13.6,671851.364593,4689813.90805,42,T
1581296027297934055,0,0,GPS data,42.3416766667,71.0861166667,13.4,671843.498863,4689820.93717,42,T
1581296028300223112,0,0,GPS data,42.3417416667,71.0860233333,13.3,671835.633148,4689827.96629,42,T
1581296029299385070,0,0,GPS data,42.3418083333,71.0859316667,13.2,671827.900206,4689835.18386,42,T
1581296030300970077,0,0,GPS data,42.3418766667,71.0858433333,13.0,671820.437332,4689842.59325,42,T
1581296031301187038,0,0,GPS data,42.3419483333,71.085755,12.8,671812.965395,4689850.37279,42,T
1581296032299947977,0,0,GPS data,42.34202,71.0856683333,12.7,671805.63077,4689858.1557,42,T
1581296033299722909,0,0,GPS data,42.3420916667,71.0855833333,12.6,671798.433458,4689865.94198,42,T
1581296034302030086,0,0,GPS data,42.34216,71.0854983333,12.7,671791.245239,4689873.35814,42,T
1581296035301445960,0,0,GPS data,42.342225,71.0854183333,12.7,671784.478002,4689880.41426,42,T
1581296036300163030,0,0,GPS data,42.3422866667,71.0853433333,12.4,671778.131744,4689887.11034,42,T
1581296037300167083,0,0,GPS data,42.34234,71.085275,12.4,671772.357374,4689892.89455,42,T
1581296038300681114,0,0,GPS data,42.3423866667,71.0852133333,12.4,671767.150351,4689897.95195,42,T
1581296039300760030,0,0,GPS data,42.342425,71.085155,12.5,671762.240619,4689902.09073,42,T
1581296040300817966,0,0,GPS data,42.3424566667,71.0851033333,12.7,671757.898228,4689905.5027,42,T
1581296041299814939,0,0,GPS data,42.342485,71.0850583333,12.7,671754.114099,4689908.55799,42,T
1581296042299993991,0,0,GPS data,42.3425116667,71.0850233333,12.5,671751.158284,4689911.44842,42,T
1581296043300942897,0,0,GPS data,42.3425333333,71.084995,12.7,671748.765267,4689913.79711,42,T
1581296044300681114,0,0,GPS data,42.3425533333,71.0849716667,12.5,671746.788675,4689915.97082,42,T
1581296045300458908,0,0,GPS data,42.34257,71.084955,12.3,671745.370342,4689917.78786,42,T
1581296046299804925,0,0,GPS data,42.3425816667,71.0849466667,12.1,671744.652099,4689919.06652,42,T
1581296047301580905,0,0,GPS data,42.3425866667,71.0849466667,11.9,671744.638484,4689919.62174,42,T
1581296048301415920,0,0,GPS data,42.3425866667,71.084945,11.9,671744.501189,4689919.61837,42,T
1581296049301043987,0,0,GPS data,42.3425866667,71.084945,11.9,671744.501189,4689919.61837,42,T
1581296050300717115,0,0,GPS data,42.3425866667,71.084945,11.9,671744.501189,4689919.61837,42,T
1581296051301881074,0,0,GPS data,42.3425866667,71.084945,12.0,671744.501189,4689919.61837,42,T
1581296052303754091,0,0,GPS data,42.3425866667,71.084945,12.0,671744.501189,4689919.61837,42,T
1581296053301830053,0,0,GPS data,42.3425866667,71.084945,12.0,671744.501189,4689919.61837,42,T
1581296054301843881,0,0,GPS data,42.3425866667,71.084945,12.0,671744.501189,4689919.61837,42,T
1581296055305007934,0,0,GPS data,42.3425866667,71.084945,12.0,671744.501189,4689919.61837,42,T
1581296056311341047,0,0,GPS data,42.3425866667,71.084945,12.0,671744.501189,4689919.61837,42,T
1581296057316468954,0,0,GPS data,42.3425866667,71.084945,12.0,671744.501189,4689919.61837,42,T
1581296058317545890,0,0,GPS data,42.3425866667,71.084945,12.0,671744.501189,4689919.61837,42,T
1581296059317090988,0,0,GPS data,42.3425866667,71.084945,12.1,671744.501189,4689919.61837,42,T
1581296060309016942,0,0,GPS data,42.3425866667,71.084945,12.0,671744.501189,4689919.61837,42,T
1581296061315874099,0,0,GPS data,42.3425866667,71.084945,12.0,671744.501189,4689919.61837,42,T
1581296062315886974,0,0,GPS data,42.3425866667,71.084945,12.0,671744.501189,4689919.61837,42,T
1581296063316199064,0,0,GPS data,42.3425866667,71.084945,12.0,671744.501189,4689919.61837,42,T
1581296064315987110,0,0,GPS data,42.3425866667,71.084945,12.0,671744.501189,4689919.61837,42,T
1581296065315264940,0,0,GPS data,42.3425866667,71.084945,12.0,671744.501189,4689919.61837,42,T
1581296066315186023,0,0,GPS data,42.3425866667,71.084945,12.0,671744.501189,4689919.61837,42,T
1581296067316483974,0,0,GPS data,42.3425866667,71.084945,12.0,671744.501189,4689919.61837,42,T
1581296068316072940,0,0,GPS data,42.3425866667,71.084945,12.0,671744.501189,4689919.61837,42,T
1581296069316169977,0,0,GPS data,42.3425866667,71.084945,12.0,671744.501189,4689919.61837,42,T
1581296070309406042,0,0,GPS data,42.3425866667,71.084945,12.0,671744.501189,4689919.61837,42,T
1581296071316642999,0,0,GPS data,42.3425866667,71.0849466667,12.0,671744.638484,4689919.62174,42,T
1581296072313456058,0,0,GPS data,42.3425866667,71.0849466667,12.0,671744.638484,4689919.62174,42,T
1581296073315562963,0,0,GPS data,42.3425866667,71.0849466667,12.0,671744.638484,4689919.62174,42,T
1581296074315570116,0,0,GPS data,42.3425866667,71.0849466667,12.0,671744.638484,4689919.62174,42,T
1581296075315571069,0,0,GPS data,42.3425866667,71.0849466667,12.0,671744.638484,4689919.62174,42,T
1581296076308820009,0,0,GPS data,42.3425866667,71.0849466667,12.0,671744.638484,4689919.62174,42,T
1581296077315499067,0,0,GPS data,42.3425866667,71.0849466667,12.0,671744.638484,4689919.62174,42,T
1581296078315191030,0,0,GPS data,42.3425866667,71.0849466667,12.0,671744.638484,4689919.62174,42,T
1581296079315917968,0,0,GPS data,42.3425866667,71.0849466667,12.0,671744.638484,4689919.62174,42,T
1581296080315466880,0,0,GPS data,42.3425866667,71.0849466667,12.0,671744.638484,4689919.62174,42,T
1581296081315479993,0,0,GPS data,42.3425866667,71.0849466667,12.0,671744.638484,4689919.62174,42,T
1581296082317099094,0,0,GPS data,42.3425866667,71.0849466667,12.0,671744.638484,4689919.62174,42,T
1581296083315936088,0,0,GPS data,42.3425866667,71.0849466667,12.0,671744.638484,4689919.62174,42,T
1581296084308458089,0,0,GPS data,42.3425866667,71.084945,12.1,671744.501189,4689919.61837,42,T
1581296085316272020,0,0,GPS data,42.3425883333,71.08494,12.0,671744.084766,4689919.79334,42,T
1581296086315038919,0,0,GPS data,42.3425966667,71.08493,12.0,671743.238305,4689920.69849,42,T
1581296087315315961,0,0,GPS data,42.3426083333,71.084915,12.1,671741.970882,4689921.96369,42,T
1581296088315877914,0,0,GPS data,42.34262,71.0848933333,12.1,671740.15428,4689923.21542,42,T
1581296089314862012,0,0,GPS data,42.3426316667,71.084865,12.2,671737.788498,4689924.45368,42,T
1581296090307779073,0,0,GPS data,42.3426333333,71.0848216667,12.3,671734.21429,4689924.55123,42,T
1581296091315413951,0,0,GPS data,42.34262,71.0847716667,12.5,671730.131743,4689922.96967,42,T
1581296092313911914,0,0,GPS data,42.3425866667,71.084715,13.0,671725.554465,4689919.1538,42,T
1581296093305583953,0,0,GPS data,42.3425483333,71.084655,13.7,671720.716204,4689914.77599,42,T
1581296094307291984,0,0,GPS data,42.3425033333,71.084585,14.3,671715.072316,4689909.6377,42,T
1581296095305610895,0,0,GPS data,42.3424533333,71.084515,14.1,671709.44203,4689903.94421,42,T
1581296096313467025,0,0,GPS data,42.342405,71.0844366667,14.2,671703.120721,4689898.41896,42,T
1581296097306616067,0,0,GPS data,42.3423483333,71.084355,14.0,671696.547495,4689891.96163,42,T
1581296098305975914,0,0,GPS data,42.3422883333,71.0842716667,13.8,671689.846034,4689885.1308,42,T
1581296099306571006,0,0,GPS data,42.34223,71.08419,13.8,671683.27732,4689878.48842,42,T
1581296100308414936,0,0,GPS data,42.3421866667,71.08411,13.8,671676.805062,4689873.51504,42,T
1581296101307941913,0,0,GPS data,42.3421433333,71.0840383333,13.8,671671.019275,4689868.5585,42,T
1581296102313851118,0,0,GPS data,42.3421016667,71.0839716667,14.3,671665.640832,4689863.79713,42,T
1581296103307451963,0,0,GPS data,42.3420616667,71.0839066667,15.6,671660.395143,4689859.2242,42,T
1581296104303503990,0,0,GPS data,42.3420216667,71.083845,16.1,671655.424039,4689854.658,42,T
1581296105307379007,0,0,GPS data,42.3419766667,71.0837833333,16.9,671650.466536,4689849.53659,42,T
1581296106307625055,0,0,GPS data,42.3419333333,71.0837216667,16.7,671645.50449,4689844.60026,42,T
1581296107306824922,0,0,GPS data,42.3418866667,71.0836566667,16.5,671640.276914,4689839.28706,42,T
1581296108307727098,0,0,GPS data,42.34184,71.0835883333,16.5,671634.774736,4689833.96713,42,T
1581296109307212114,0,0,GPS data,42.3417966667,71.0835216667,16.4,671629.400777,4689829.02072,42,T
1581296110310005903,0,0,GPS data,42.34176,71.083465,16.6,671624.832453,4689824.83478,42,T
1581296111309847116,0,0,GPS data,42.3417333333,71.0834283333,16.6,671621.884478,4689821.79963,42,T
1581296112310964107,0,0,GPS data,42.341705,71.083405,17.9,671620.039411,4689818.60633,42,T
1581296113310122966,0,0,GPS data,42.3416916667,71.083395,18.6,671619.251906,4689817.10558,42,T
1581296114309680938,0,0,GPS data,42.3416916667,71.0833933333,18.6,671619.114609,4689817.10222,42,T
1581296115311136007,0,0,GPS data,42.3416916667,71.0833933333,18.6,671619.114609,4689817.10222,42,T
1581296116310811996,0,0,GPS data,42.3416916667,71.0833933333,18.7,671619.114609,4689817.10222,42,T
1581296117308614969,0,0,GPS data,42.3416833333,71.0833966667,19.5,671619.411877,4689816.18359,42,T
1581296118311876058,0,0,GPS data,42.3416833333,71.0833966667,19.5,671619.411877,4689816.18359,42,T
1581296119301727056,0,0,GPS data,42.3416833333,71.0833966667,19.6,671619.411877,4689816.18359,42,T
1581296120301090955,0,0,GPS data,42.3416833333,71.0833966667,19.6,671619.411877,4689816.18359,42,T
1581296121301512956,0,0,GPS data,42.3416833333,71.0833966667,19.6,671619.411877,4689816.18359,42,T
1581296122301542043,0,0,GPS data,42.3416833333,71.0833966667,19.7,671619.411877,4689816.18359,42,T
1581296123301565885,0,0,GPS data,42.3416833333,71.0833966667,19.7,671619.411877,4689816.18359,42,T
1581296124301549911,0,0,GPS data,42.3416833333,71.0833966667,19.7,671619.411877,4689816.18359,42,T
1581296125300926923,0,0,GPS data,42.3416833333,71.0833966667,19.8,671619.411877,4689816.18359,42,T
1581296126301069021,0,0,GPS data,42.3416833333,71.0833966667,19.8,671619.411877,4689816.18359,42,T
1581296127301476955,0,0,GPS data,42.3416833333,71.0833966667,19.8,671619.411877,4689816.18359,42,T
1581296128300978899,0,0,GPS data,42.3416833333,71.0833966667,19.8,671619.411877,4689816.18359,42,T
1581296129301491022,0,0,GPS data,42.3416833333,71.0833966667,19.9,671619.411877,4689816.18359,42,T
1581296130302352905,0,0,GPS data,42.3416833333,71.0833966667,19.9,671619.411877,4689816.18359,42,T
1581296131302021980,0,0,GPS data,42.3416833333,71.0833966667,19.9,671619.411877,4689816.18359,42,T
1581296132301055908,0,0,GPS data,42.3416833333,71.0833966667,20.0,671619.411877,4689816.18359,42,T
1581296133301142930,0,0,GPS data,42.3416833333,71.0833966667,20.0,671619.411877,4689816.18359,42,T
1581296134301563978,0,0,GPS data,42.3416833333,71.0833966667,20.0,671619.411877,4689816.18359,42,T
1581296135300781965,0,0,GPS data,42.3416833333,71.0833966667,20.0,671619.411877,4689816.18359,42,T
1581296136299340963,0,0,GPS data,42.3416833333,71.0833966667,20.0,671619.411877,4689816.18359,42,T
1581296137298947095,0,0,GPS data,42.3416866667,71.0834,19.3,671619.677402,4689816.56046,42,T
1581296138299623012,0,0,GPS data,42.3416816667,71.083395,18.9,671619.279115,4689815.99516,42,T
1581296139309109926,0,0,GPS data,42.3416666667,71.0833683333,18.9,671617.123173,4689814.2757,42,T
1581296140310214042,0,0,GPS data,42.3416316667,71.0833233333,20.0,671613.511377,4689810.29838,42,T
1581296141314505100,0,0,GPS data,42.3415883333,71.0832616667,20.3,671608.549277,4689805.36208,42,T
1581296142309019088,0,0,GPS data,42.34153,71.0831833333,21.9,671602.255003,4689798.7265,42,T
1581296143313890933,0,0,GPS data,42.3414683333,71.0830966667,22.5,671595.283298,4689791.70397,42,T
1581296144313874959,0,0,GPS data,42.3414,71.083005,22.7,671587.917822,4689783.93108,42,T
1581296145307146072,0,0,GPS data,42.341325,71.0829033333,22.6,671579.746676,4689775.39773,42,T
1581296146307168960,0,0,GPS data,42.3412466667,71.082795,22.5,671571.035385,4689766.4808,42,T
1581296147307893037,0,0,GPS data,42.3411666667,71.0826833333,22.5,671562.054008,4689757.37208,42,T
1581296148308677911,0,0,GPS data,42.34109,71.0825716667,22.6,671553.063541,4689748.63352,42,T
1581296149308173894,0,0,GPS data,42.341015,71.0824633333,22.3,671544.343117,4689740.08676,42,T
1581296150307923078,0,0,GPS data,42.34094,71.0823566667,22.5,671535.75997,4689731.54338,42,T
1581296151308549880,0,0,GPS data,42.340865,71.0822533333,22.5,671527.451399,4689723.00673,42,T
1581296152310759067,0,0,GPS data,42.3407916667,71.082155,22.9,671519.550173,4689714.66525,42,T
1581296153310748100,0,0,GPS data,42.3407266667,71.0820666667,23.3,671512.450063,4689707.26931,42,T
1581296154310981988,0,0,GPS data,42.3406716667,71.0819933333,23.4,671506.558443,4689701.01405,42,T
1581296155309896945,0,0,GPS data,42.340635,71.081935,23.0,671501.852661,4689696.82484,42,T
1581296156310097932,0,0,GPS data,42.3406133333,71.0818933333,21.4,671498.479085,4689694.33487,42,T
1581296157310271978,0,0,GPS data,42.34059,71.0818783333,20.3,671497.306829,4689691.71363,42,T
1581296158314440965,0,0,GPS data,42.340555,71.0818833333,20.2,671497.813885,4689687.83723,42,T
1581296159312503099,0,0,GPS data,42.3405166667,71.08191,20.4,671500.114899,4689683.63439,42,T
1581296160313621997,0,0,GPS data,42.3404766667,71.0819516667,20.9,671503.656144,4689679.27674,42,T
1581296161313029050,0,0,GPS data,42.34043,71.0820033333,20.9,671508.039318,4689674.19898,42,T
1581296162307885885,0,0,GPS data,42.3403783333,71.0820616667,21.0,671512.985292,4689668.57946,42,T
1581296163315320968,0,0,GPS data,42.3403233333,71.082125,21.1,671518.352239,4689662.59988,42,T
1581296164315304040,0,0,GPS data,42.340265,71.082195,21.2,671524.277458,4689656.26362,42,T
1581296165315340995,0,0,GPS data,42.3402,71.0822716667,21.5,671530.770018,4689649.20053,42,T
1581296166315649032,0,0,GPS data,42.34013,71.0823533333,21.7,671537.688089,4689641.59232,42,T
1581296167308671951,0,0,GPS data,42.3400566667,71.0824416667,21.9,671545.164442,4689633.62742,42,T
1581296168315589904,0,0,GPS data,42.3399783333,71.0825316667,22.3,671552.79171,4689625.11068,42,T
1581296169315738916,0,0,GPS data,42.3398983333,71.082625,22.8,671560.698131,4689616.41561,42,T
1581296170315311908,0,0,GPS data,42.339815,71.0827216667,23.2,671568.88824,4689607.35713,42,T
1581296171308182001,0,0,GPS data,42.33973,71.0828216667,23.6,671577.357506,4689598.12031,42,T
1581296172308343887,0,0,GPS data,42.3396416667,71.0829216667,24.1,671585.83586,4689588.51336,42,T
1581296173315334081,0,0,GPS data,42.3395566667,71.08302,24.4,671594.167868,4689579.2732,42,T
1581296174307754993,0,0,GPS data,42.3394716667,71.0831183333,24.5,671602.499898,4689570.03305,42,T
1581296175314143896,0,0,GPS data,42.3393883333,71.083215,24.4,671610.690113,4689560.97462,42,T
1581296176313860893,0,0,GPS data,42.3393066667,71.08331,24.2,671618.738512,4689552.0979,42,T
1581296177315308094,0,0,GPS data,42.3392283333,71.0834066667,23.7,671626.915164,4689543.59469,42,T
1581296178313393115,0,0,GPS data,42.3391466667,71.0835033333,23.1,671635.100906,4689534.72136,42,T
1581296179311749935,0,0,GPS data,42.3390666667,71.0836,22.6,671643.282132,4689526.0331,42,T
1581296180304864883,0,0,GPS data,42.3389866667,71.0836983333,22.1,671651.600682,4689517.34822,42,T
1581296181304646015,0,0,GPS data,42.3389083333,71.0837966667,21.6,671659.914717,4689508.84841,42,T
1581296182310813903,0,0,GPS data,42.3388333333,71.083895,20.9,671668.2197,4689500.71876,42,T
1581296183311031103,0,0,GPS data,42.3387616667,71.083995,20.1,671676.652935,4689492.96262,42,T
1581296184307990074,0,0,GPS data,42.3386916667,71.0840966667,19.4,671685.218955,4689485.39493,42,T
1581296185313019990,0,0,GPS data,42.3386216667,71.0842,18.8,671693.922298,4689477.83061,42,T
1581296186305412054,0,0,GPS data,42.3385533333,71.084305,18.5,671702.758427,4689470.45474,42,T
1581296187315367937,0,0,GPS data,42.3384833333,71.08441,18.3,671711.599111,4689462.89381,42,T
1581296188313714981,0,0,GPS data,42.338415,71.0845183333,18.4,671720.709885,4689455.5247,42,T
1581296189315768003,0,0,GPS data,42.3383466667,71.0846283333,18.4,671729.957983,4689448.15896,42,T
1581296190306925058,0,0,GPS data,42.3382766667,71.084735,18.7,671738.936029,4689440.60143,42,T
1581296191312288045,0,0,GPS data,42.3382083333,71.0848433333,18.9,671748.046861,4689433.23234,42,T
1581296192311192035,0,0,GPS data,42.3381416667,71.0849483333,19.1,671756.878565,4689426.04161,42,T
1581296193304080009,0,0,GPS data,42.3380766667,71.0850483333,19.2,671765.293835,4689419.02586,42,T
1581296194318064928,0,0,GPS data,42.338015,71.0851466667,19.1,671773.562739,4689412.37689,42,T
1581296195315258026,0,0,GPS data,42.3379533333,71.08524,19.0,671781.419744,4689405.71783,42,T
1581296196307636976,0,0,GPS data,42.3378966667,71.085335,18.8,671789.400454,4689399.61735,42,T
1581296197307153940,0,0,GPS data,42.33784,71.0854266667,18.3,671797.106566,4689393.51016,42,T
1581296198313937902,0,0,GPS data,42.3377916667,71.0855083333,18.1,671803.966163,4689388.30811,42,T
1581296199315062046,0,0,GPS data,42.3377466667,71.0855816667,17.8,671810.130164,4689383.45938,42,T
1581296200315076112,0,0,GPS data,42.3377,71.085655,17.5,671816.298713,4689378.42558,42,T
1581296201314914941,0,0,GPS data,42.3376483333,71.0857366667,17.3,671823.167419,4689372.85341,42,T
1581296202315860033,0,0,GPS data,42.3375916667,71.085825,17.3,671830.598978,4689366.73951,42,T
1581296203314399957,0,0,GPS data,42.3375316667,71.0859166667,17.4,671838.314242,4689360.26222,42,T
1581296204307466030,0,0,GPS data,42.3374733333,71.086005,17.4,671845.750368,4689353.96326,42,T
1581296205314534902,0,0,GPS data,42.3374233333,71.0860833333,17.3,671852.339968,4689348.56946,42,T
1581296206313739061,0,0,GPS data,42.3373783333,71.08615,17.3,671857.954811,4689343.70729,42,T
1581296207314060926,0,0,GPS data,42.3373383333,71.0862116667,17.2,671863.144122,4689339.39023,42,T
1581296208314743041,0,0,GPS data,42.3372933333,71.0862683333,17.7,671867.93514,4689334.50786,42,T
1581296209306833982,0,0,GPS data,42.3372516667,71.0863283333,17.8,671872.991697,4689330.00237,42,T
1581296210307651996,0,0,GPS data,42.3372116667,71.0863866667,17.7,671877.906414,4689325.67859,42,T
1581296211315642118,0,0,GPS data,42.3371783333,71.08644,17.5,671882.391051,4689322.08498,42,T
1581296212308084964,0,0,GPS data,42.3371516667,71.0864816667,17.4,671885.89638,4689319.20808,42,T
1581296213307564973,0,0,GPS data,42.3371333333,71.0865116667,17.1,671888.417858,4689317.23295,42,T
1581296214308389902,0,0,GPS data,42.3371183333,71.0865333333,16.9,671890.243719,4689315.61111,42,T
1581296215307852983,0,0,GPS data,42.3371083333,71.08655,16.7,671891.644036,4689314.53438,42,T
1581296216307205915,0,0,GPS data,42.3370983333,71.0865666667,16.5,671893.044354,4689313.45765,42,T
1581296217307012081,0,0,GPS data,42.3370833333,71.0865916667,16.3,671895.144832,4689311.84255,42,T
1581296218315448999,0,0,GPS data,42.33706,71.08663,16.2,671898.366474,4689309.32905,42,T
1581296219307802915,0,0,GPS data,42.33703,71.0866833333,16.0,671902.84205,4689306.1056,42,T
1581296220313261985,0,0,GPS data,42.33699,71.0867483333,15.8,671908.30603,4689301.79532,42,T
1581296221314383029,0,0,GPS data,42.3369433333,71.086825,15.7,671914.749336,4689296.76834,42,T
1581296222308057069,0,0,GPS data,42.3368933333,71.08691,15.4,671921.888273,4689291.38808,42,T
1581296223315152883,0,0,GPS data,42.3368383333,71.0870033333,15.2,671929.727385,4689285.46946,42,T
1581296224315583944,0,0,GPS data,42.33678,71.0870983333,15.0,671937.712904,4689279.18408,42,T
1581296225314158916,0,0,GPS data,42.3367216667,71.087195,14.9,671945.835744,4689272.90207,42,T
1581296226314971923,0,0,GPS data,42.3366683333,71.0872883333,14.9,671953.670355,4689267.16855,42,T
1581296227315529108,0,0,GPS data,42.3366183333,71.087375,14.9,671960.94666,4689261.79169,42,T
1581296228306827068,0,0,GPS data,42.3365733333,71.0874516667,14.9,671967.385498,4689256.94983,42,T
1581296229314276933,0,0,GPS data,42.3365333333,71.0875183333,15.0,671972.986865,4689252.64297,42,T
1581296230314282894,0,0,GPS data,42.3364933333,71.0875783333,15.0,671978.039005,4689248.32262,42,T
1581296231315407991,0,0,GPS data,42.33645,71.0876333333,15.0,671982.688313,4689243.62203,42,T
1581296232316051959,0,0,GPS data,42.3364033333,71.08768,15.6,671986.660171,4689238.53444,42,T
1581296233314079999,0,0,GPS data,42.3363516667,71.0877083333,15.8,671989.13527,4689232.85455,42,T
1581296234313796997,0,0,GPS data,42.336295,71.0877166667,15.9,671989.976298,4689226.57901,42,T
1581296235310986995,0,0,GPS data,42.336235,71.087695,16.3,671988.354853,4689219.87264,42,T
1581296236316447019,0,0,GPS data,42.336175,71.0876533333,16.8,671985.085695,4689213.12583,42,T
1581296237308358907,0,0,GPS data,42.336115,71.0875966667,17.3,671980.580747,4689206.34868,42,T
1581296238308365106,0,0,GPS data,42.3360516667,71.0875333333,17.9,671975.535639,4689199.1879,42,T
1581296239307672023,0,0,GPS data,42.33599,71.0874716667,18.0,671970.623287,4689192.21558,42,T
1581296240307682037,0,0,GPS data,42.33593,71.0874133333,17.8,671965.981001,4689185.43506,42,T
1581296241307044029,0,0,GPS data,42.335875,71.0873583333,17.9,671961.599697,4689179.21651,42,T
1581296242307097911,0,0,GPS data,42.3358283333,71.0873116667,17.6,671957.882221,4689173.94016,42,T
1581296243307708024,0,0,GPS data,42.3357916667,71.087275,17.3,671954.961342,4689169.79446,42,T
1581296244310383081,0,0,GPS data,42.3357633333,71.0872483333,17.6,671952.841607,4689166.59433,42,T
1581296245309807062,0,0,GPS data,42.3357466667,71.0872316667,17.7,671951.513933,4689164.70993,42,T
1581296246318291902,0,0,GPS data,42.3357383333,71.087225,17.9,671950.987406,4689163.77109,42,T
1581296247316035032,0,0,GPS data,42.3357366667,71.0872233333,17.8,671950.854638,4689163.58265,42,T
1581296248315573930,0,0,GPS data,42.3357366667,71.0872233333,17.9,671950.854638,4689163.58265,42,T
1581296249315381050,0,0,GPS data,42.3357366667,71.0872233333,17.9,671950.854638,4689163.58265,42,T
1581296250316241025,0,0,GPS data,42.3357366667,71.0872233333,17.9,671950.854638,4689163.58265,42,T
1581296251315855979,0,0,GPS data,42.3357366667,71.0872233333,17.9,671950.854638,4689163.58265,42,T
1581296252308235883,0,0,GPS data,42.3357366667,71.0872233333,17.9,671950.854638,4689163.58265,42,T
1581296253315793037,0,0,GPS data,42.3357366667,71.0872233333,17.9,671950.854638,4689163.58265,42,T
1581296254315804004,0,0,GPS data,42.3357366667,71.0872233333,17.9,671950.854638,4689163.58265,42,T
1581296255315797090,0,0,GPS data,42.3357366667,71.0872233333,17.9,671950.854638,4689163.58265,42,T
1581296256316159009,0,0,GPS data,42.3357366667,71.0872233333,17.9,671950.854638,4689163.58265,42,T
1581296257315283060,0,0,GPS data,42.3357366667,71.0872233333,17.9,671950.854638,4689163.58265,42,T
1581296258308255910,0,0,GPS data,42.3357366667,71.0872233333,17.9,671950.854638,4689163.58265,42,T
1581296259315584897,0,0,GPS data,42.3357366667,71.0872233333,17.9,671950.854638,4689163.58265,42,T
1581296260315231084,0,0,GPS data,42.3357366667,71.0872233333,17.9,671950.854638,4689163.58265,42,T
1581296261315879106,0,0,GPS data,42.3357366667,71.0872233333,17.9,671950.854638,4689163.58265,42,T
1581296262317339897,0,0,GPS data,42.3357366667,71.0872233333,18.0,671950.854638,4689163.58265,42,T
1581296263308096885,0,0,GPS data,42.3357366667,71.0872233333,18.0,671950.854638,4689163.58265,42,T
1581296264314999103,0,0,GPS data,42.3357366667,71.0872233333,18.0,671950.854638,4689163.58265,42,T
1581296265314929962,0,0,GPS data,42.3357366667,71.0872233333,18.0,671950.854638,4689163.58265,42,T
1581296266315124988,0,0,GPS data,42.3357366667,71.0872233333,18.0,671950.854638,4689163.58265,42,T
1581296267315500974,0,0,GPS data,42.335735,71.0872216667,18.1,671950.72187,4689163.39421,42,T
1581296268309032917,0,0,GPS data,42.3357233333,71.0872133333,18.1,671950.067118,4689162.08186,42,T
1581296269308229923,0,0,GPS data,42.3357,71.0871983333,18.0,671948.894922,4689159.46054,42,T
1581296270315251111,0,0,GPS data,42.335665,71.087195,18.1,671948.715693,4689155.56732,42,T
1581296271315506935,0,0,GPS data,42.3356233333,71.0872166667,18.2,671950.614288,4689150.98437,42,T
1581296272313993930,0,0,GPS data,42.3355866667,71.08727,18.2,671955.108155,4689147.02067,42,T
1581296273314384937,0,0,GPS data,42.33555,71.0873483333,18.2,671961.661684,4689143.10752,42,T
1581296274314553022,0,0,GPS data,42.3355066667,71.087445,18.2,671969.743809,4689138.49118,42,T
1581296275307796955,0,0,GPS data,42.3354583333,71.0875583333,18.2,671979.21268,4689133.35334,42,T
1581296276307827949,0,0,GPS data,42.3353983333,71.0876833333,18.4,671989.674546,4689126.94362,42,T
1581296277314469099,0,0,GPS data,42.335335,71.08782,18.7,672001.106695,4689120.18737,42,T
1581296278313601970,0,0,GPS data,42.3352683333,71.0879633333,18.9,672013.097199,4689113.07448,42,T
1581296279314498901,0,0,GPS data,42.3351983333,71.08811,19.1,672025.371439,4689105.59821,42,T
1581296280314390897,0,0,GPS data,42.33513,71.088255,19.3,672037.50385,4689098.30366,42,T
1581296281313343048,0,0,GPS data,42.335065,71.0883966667,19.3,672049.352573,4689091.37254,42,T
1581296282308123111,0,0,GPS data,42.335005,71.08853,19.1,672060.501126,4689084.97978,42,T
1581296283320410966,0,0,GPS data,42.33495,71.0886466667,19.1,672070.262946,4689079.10852,42,T
1581296284315532922,0,0,GPS data,42.334905,71.0887466667,18.9,672078.624388,4689074.31397,42,T
1581296285316109895,0,0,GPS data,42.33487,71.08883,18.7,672085.585447,4689070.59613,42,T
1581296286307749986,0,0,GPS data,42.3348366667,71.0889033333,18.4,672091.718095,4689067.04312,42,T
1581296287314784049,0,0,GPS data,42.3348066667,71.08898,18.1,672098.116281,4689063.86701,42,T
1581296288314816951,0,0,GPS data,42.3347716667,71.0890566667,17.9,672104.528112,4689060.1357,42,T
1581296289314361095,0,0,GPS data,42.3347366667,71.0891383333,17.5,672111.351887,4689056.4145,42,T
1581296290314486026,0,0,GPS data,42.3347016667,71.08922,17.0,672118.17567,4689052.69332,42,T
1581296291315174102,0,0,GPS data,42.3346666667,71.089295,17.0,672124.45021,4689048.95865,42,T
1581296292307415008,0,0,GPS data,42.3346316667,71.08935,17.8,672129.077008,4689045.18349,42,T
1581296293312963962,0,0,GPS data,42.3346066667,71.089405,18.0,672133.676527,4689042.51877,42,T
1581296294313827037,0,0,GPS data,42.334595,71.08946,17.4,672138.239672,4689041.33461,42,T
1581296295306252002,0,0,GPS data,42.3346033333,71.0895183333,16.8,672143.022874,4689042.37805,42,T
1581296296313050985,0,0,GPS data,42.3346266667,71.0895783333,16.4,672147.902459,4689045.0905,42,T
1581296297306497097,0,0,GPS data,42.3346683333,71.08963,16.0,672152.045455,4689049.82186,42,T
1581296298306550979,0,0,GPS data,42.3347266667,71.0896766667,16.0,672155.731029,4689056.39381,42,T
1581296299305793046,0,0,GPS data,42.3347916667,71.0897266667,16.0,672159.673029,4689063.71279,42,T
1581296300305552959,0,0,GPS data,42.33486,71.08978,16.2,672163.880549,4689071.40866,42,T
1581296301305360078,0,0,GPS data,42.3349233333,71.08983,16.2,672167.827079,4689078.54258,42,T
1581296302305686950,0,0,GPS data,42.33498,71.0898783333,16.2,672171.654482,4689084.93284,42,T
1581296303305689096,0,0,GPS data,42.3350316667,71.0899216667,16.4,672175.083588,4689090.75776,42,T
1581296304307885885,0,0,GPS data,42.3350733333,71.0899733333,17.4,672179.226537,4689095.48914,42,T
1581296305307523012,0,0,GPS data,42.3351066667,71.0900216667,18.4,672183.117599,4689099.28842,42,T
1581296306309411048,0,0,GPS data,42.3351416667,71.09005,18.2,672185.356373,4689103.23227,42,T
1581296307310632944,0,0,GPS data,42.3351716667,71.09007,17.7,672186.922233,4689106.60404,42,T
1581296308310317993,0,0,GPS data,42.335195,71.090085,17.3,672188.094353,4689109.2254,42,T
1581296309310070037,0,0,GPS data,42.335215,71.090095,16.9,672188.863635,4689111.4665,42,T
1581296310311074018,0,0,GPS data,42.335225,71.0901,16.5,672189.248276,4689112.58705,42,T
1581296311310676097,0,0,GPS data,42.335225,71.0901,16.5,672189.248276,4689112.58705,42,T
1581296312309201002,0,0,GPS data,42.335225,71.0901,16.5,672189.248276,4689112.58705,42,T
1581296313300411939,0,0,GPS data,42.335225,71.0901,16.5,672189.248276,4689112.58705,42,T
1581296314299778938,0,0,GPS data,42.335225,71.0901,16.5,672189.248276,4689112.58705,42,T
1581296315300545930,0,0,GPS data,42.335225,71.0901,16.5,672189.248276,4689112.58705,42,T
1581296316301115036,0,0,GPS data,42.335225,71.0901,16.5,672189.248276,4689112.58705,42,T
1581296317300741910,0,0,GPS data,42.335225,71.0901,16.5,672189.248276,4689112.58705,42,T
1581296318300404071,0,0,GPS data,42.335225,71.0901,16.5,672189.248276,4689112.58705,42,T
1581296319300754070,0,0,GPS data,42.335225,71.0901,16.5,672189.248276,4689112.58705,42,T
1581296320300741910,0,0,GPS data,42.335225,71.0901,16.5,672189.248276,4689112.58705,42,T
1581296321300450086,0,0,GPS data,42.335225,71.0901,16.5,672189.248276,4689112.58705,42,T
1581296322302531003,0,0,GPS data,42.335225,71.0901,16.5,672189.248276,4689112.58705,42,T
1581296323301060914,0,0,GPS data,42.335225,71.0901,16.5,672189.248276,4689112.58705,42,T
1581296324301078081,0,0,GPS data,42.335225,71.0901,16.5,672189.248276,4689112.58705,42,T
1581296325300448894,0,0,GPS data,42.335225,71.0901,16.5,672189.248276,4689112.58705,42,T
1581296326300543069,0,0,GPS data,42.335225,71.0901,16.5,672189.248276,4689112.58705,42,T
1581296327300668001,0,0,GPS data,42.335225,71.0901,16.5,672189.248276,4689112.58705,42,T
1581296328301342010,0,0,GPS data,42.335225,71.0901,16.5,672189.248276,4689112.58705,42,T
1581296329300894021,0,0,GPS data,42.335225,71.0900983333,16.4,672189.110965,4689112.58367,42,T
1581296330300853013,0,0,GPS data,42.3352316667,71.0900983333,16.1,672189.09277,4689113.32396,42,T
1581296331301264047,0,0,GPS data,42.3352483333,71.09011,15.9,672190.008461,4689115.19829,42,T
1581296332301177978,0,0,GPS data,42.3352783333,71.0901316667,15.9,672191.711627,4689118.57343,42,T
1581296333300745010,0,0,GPS data,42.3353183333,71.0901633333,15.8,672194.211364,4689123.07925,42,T
1581296334302086114,0,0,GPS data,42.3353733333,71.0902066667,15.9,672197.631332,4689129.27433,42,T
1581296335301295995,0,0,GPS data,42.3354366667,71.09026,15.9,672201.852414,4689136.41502,42,T
1581296336300647020,0,0,GPS data,42.3355116667,71.0903266667,16.0,672207.140126,4689144.8782,42,T
1581296337300750017,0,0,GPS data,42.3355783333,71.0904016667,16.1,672213.137124,4689152.43292,42,T
1581296338300784111,0,0,GPS data,42.33564,71.090485,16.0,672219.834309,4689159.4493,42,T
1581296339300923109,0,0,GPS data,42.3357,71.0905733333,15.8,672226.947961,4689166.29075,42,T
1581296340300683975,0,0,GPS data,42.33576,71.0906683333,15.6,672234.610838,4689173.14571,42,T
1581296341299865961,0,0,GPS data,42.335815,71.09077,15.3,672242.836591,4689179.45897,42,T
1581296342299747943,0,0,GPS data,42.335875,71.090885,15.1,672252.147157,4689186.35446,42,T
1581296343300007104,0,0,GPS data,42.335935,71.0910066667,14.8,672262.006942,4689193.26347,42,T
1581296344299850940,0,0,GPS data,42.335995,71.0911383333,14.2,672272.690566,4689200.19275,42,T
1581296345300218105,0,0,GPS data,42.3360566667,71.0912766667,13.4,672283.918854,4689207.32063,42,T
1581296346300961971,0,0,GPS data,42.3361166667,71.09142,12.8,672295.5636,4689214.27359,42,T
1581296347301578044,0,0,GPS data,42.3361816667,71.0915666667,12.2,672307.469286,4689221.78854,42,T
1581296348300096035,0,0,GPS data,42.3362466667,71.0917166667,11.7,672319.649564,4689229.31026,42,T
1581296349299813032,0,0,GPS data,42.3363116667,71.091865,11.3,672331.692508,4689236.82862,42,T
1581296350299211025,0,0,GPS data,42.3363733333,71.0920116667,11.0,672343.607224,4689243.97349,42,T
1581296351299722909,0,0,GPS data,42.3364333333,71.0921583333,10.7,672355.52647,4689250.93331,42,T
1581296352299848079,0,0,GPS data,42.3364933333,71.0923016667,10.4,672367.171076,4689257.88639,42,T
1581296353298697948,0,0,GPS data,42.33655,71.0924383333,10.2,672378.275533,4689264.45583,42,T
1581296354300338983,0,0,GPS data,42.336605,71.092565,10.2,672388.560676,4689270.81995,42,T
1581296355300349950,0,0,GPS data,42.3366566667,71.092685,10.1,672398.305677,4689276.80043,42,T
1581296356299685955,0,0,GPS data,42.3367083333,71.0928016667,10.1,672407.776045,4689282.77417,42,T
1581296357298928976,0,0,GPS data,42.3367516667,71.0929133333,10.1,672416.85725,4689287.81242,42,T
1581296358300379037,0,0,GPS data,42.3367866667,71.0930183333,10.2,672425.411986,4689291.91182,42,T
1581296359298973083,0,0,GPS data,42.336825,71.0931183333,10.3,672433.545679,4689296.37122,42,T
1581296360298835992,0,0,GPS data,42.3368716667,71.0932216667,10.0,672441.931199,4689301.76276,42,T
1581296361299411058,0,0,GPS data,42.3369133333,71.0933266667,10.0,672450.467681,4689306.60247,42,T
1581296362298043012,0,0,GPS data,42.3369533333,71.0934316667,9.9,672459.008708,4689311.25712,42,T
1581296363297940015,0,0,GPS data,42.3369983333,71.0935366667,9.5,672467.536055,4689316.46699,42,T
1581296364298024892,0,0,GPS data,42.33703,71.0936383333,9.7,672475.825228,4689320.18954,42,T
1581296365297223091,0,0,GPS data,42.3370583333,71.09374,9.9,672484.123506,4689323.54197,42,T
1581296366299372911,0,0,GPS data,42.3370883333,71.093845,10.5,672492.691833,4689327.08624,42,T
1581296367301778078,0,0,GPS data,42.337115,71.093955,11.8,672501.681189,4689330.27052,42,T
1581296368306456089,0,0,GPS data,42.3371533333,71.0940683333,12.2,672510.913248,4689334.75707,42,T
1581296369307693958,0,0,GPS data,42.3371966667,71.094185,12.2,672520.406236,4689339.80561,42,T
1581296370300751924,0,0,GPS data,42.337245,71.0943066667,12.2,672530.297457,4689345.41952,42,T
1581296371307995080,0,0,GPS data,42.3372933333,71.0944283333,12.2,672540.188663,4689351.03344,42,T
1581296372301094055,0,0,GPS data,42.33734,71.0945483333,12.1,672549.947105,4689356.45892,42,T
1581296373307418107,0,0,GPS data,42.3373866667,71.094665,12.0,672559.430919,4689361.87766,42,T
1581296374308114051,0,0,GPS data,42.33743,71.0947766667,11.9,672568.511918,4689366.91612,42,T
1581296375308167934,0,0,GPS data,42.3374716667,71.09488,11.8,672576.910933,4689371.7526,42,T
1581296376308700084,0,0,GPS data,42.33751,71.0949783333,11.7,672584.907136,4689376.20881,42,T
1581296377307512998,0,0,GPS data,42.3375433333,71.0950716667,11.6,672592.50509,4689380.09966,42,T
1581296378300854921,0,0,GPS data,42.3375766667,71.0951583333,11.4,672599.553812,4689383.977,42,T
1581296379300659894,0,0,GPS data,42.337605,71.0952333333,11.3,672605.655064,4689387.27544,42,T
1581296380300416946,0,0,GPS data,42.3376316667,71.0952933333,11.0,672610.525118,4689390.35837,42,T
1581296381299206972,0,0,GPS data,42.33766,71.0953316667,10.8,672613.605629,4689393.58239,42,T
1581296382301934003,0,0,GPS data,42.3376916667,71.0953433333,10.6,672614.480123,4689397.12242,42,T
1581296383300292968,0,0,GPS data,42.3377216667,71.09533,10.2,672613.29959,4689400.42662,42,T
1581296384296724081,0,0,GPS data,42.3377483333,71.0952933333,9.7,672610.205898,4689403.31332,42,T
1581296385297574996,0,0,GPS data,42.3377733333,71.0952383333,9.2,672605.606406,4689405.97773,42,T
1581296386297538042,0,0,GPS data,42.3378,71.095165,8.7,672599.491996,4689408.79,42,T
1581296387298468112,0,0,GPS data,42.337835,71.095075,8.3,672591.981737,4689412.49381,42,T
1581296388299247980,0,0,GPS data,42.337875,71.0949733333,7.9,672583.496668,4689416.72915,42,T
1581296389298269987,0,0,GPS data,42.33792,71.09486,7.5,672574.036795,4689421.49603,42,T
1581296390298089027,0,0,GPS data,42.33797,71.0947383333,7.1,672563.876731,4689426.80123,42,T
1581296391298890113,0,0,GPS data,42.3380233333,71.0946116667,6.7,672553.29565,4689432.46644,42,T
1581296392298094987,0,0,GPS data,42.33808,71.0944816667,6.4,672542.43086,4689438.49503,42,T
1581296393297836065,0,0,GPS data,42.3381366667,71.0943483333,6.0,672531.291478,4689444.51689,42,T
1581296394298443078,0,0,GPS data,42.3381966667,71.0942133333,5.7,672520.005696,4689450.90552,42,T
1581296395297961950,0,0,GPS data,42.3382583333,71.094075,5.4,672508.440768,4689457.47247,42,T
1581296396297621965,0,0,GPS data,42.3383216667,71.093935,5.2,672496.734001,4689464.22113,42,T
1581296397297550916,0,0,GPS data,42.3383883333,71.09379,5.0,672484.606229,4689471.32981,42,T
1581296398298022985,0,0,GPS data,42.3384516667,71.09364,4.7,672472.075684,4689478.05823,42,T
1581296399297732114,0,0,GPS data,42.3385133333,71.093495,4.5,672459.961631,4689484.61174,42,T
1581296400298705101,0,0,GPS data,42.3385716667,71.0933533333,4.3,672448.131323,4689490.80189,42,T
1581296401297684907,0,0,GPS data,42.3386316667,71.093225,4.5,672437.39491,4689497.20417,42,T
1581296402297780990,0,0,GPS data,42.338685,71.0931116667,4.9,672427.912472,4689502.8966,42,T
1581296403297389984,0,0,GPS data,42.3387283333,71.0930233333,5.2,672420.516937,4689507.52931,42,T
1581296404298038005,0,0,GPS data,42.3387683333,71.0929516667,5.4,672414.503556,4689511.82569,42,T
1581296405298892974,0,0,GPS data,42.3387983333,71.09289,5.8,672409.341334,4689515.03192,42,T
1581296406298269033,0,0,GPS data,42.3388266667,71.09284,6.0,672405.144796,4689518.07674,42,T
1581296407299221038,0,0,GPS data,42.3388366667,71.0928016667,6.3,672401.959489,4689519.10944,42,T
1581296408298790931,0,0,GPS data,42.3388216667,71.0927716667,6.5,672399.529023,4689517.38297,42,T
1581296409297398090,0,0,GPS data,42.3388233333,71.0927616667,6.6,672398.700648,4689517.54777,42,T
1581296410304455041,0,0,GPS data,42.338825,71.0927616667,6.6,672398.696093,4689517.73284,42,T
1581296411301806926,0,0,GPS data,42.338825,71.0927616667,6.6,672398.696093,4689517.73284,42,T
1581296412299525022,0,0,GPS data,42.338825,71.0927616667,6.7,672398.696093,4689517.73284,42,T
1581296413303550958,0,0,GPS data,42.338825,71.0927616667,6.7,672398.696093,4689517.73284,42,T
1581296414304124116,0,0,GPS data,42.338825,71.0927616667,6.7,672398.696093,4689517.73284,42,T
1581296415303297996,0,0,GPS data,42.338825,71.0927616667,6.7,672398.696093,4689517.73284,42,T
1581296416305653095,0,0,GPS data,42.338825,71.0927616667,6.7,672398.696093,4689517.73284,42,T
1581296417302479028,0,0,GPS data,42.338825,71.0927616667,6.7,672398.696093,4689517.73284,42,T
1581296418305874109,0,0,GPS data,42.338825,71.0927616667,6.7,672398.696093,4689517.73284,42,T
1581296419302170991,0,0,GPS data,42.338825,71.0927616667,6.7,672398.696093,4689517.73284,42,T
1581296420302500009,0,0,GPS data,42.338825,71.0927616667,6.7,672398.696093,4689517.73284,42,T
1581296421302850961,0,0,GPS data,42.3388233333,71.0927616667,6.7,672398.700648,4689517.54777,42,T
1581296422303144931,0,0,GPS data,42.3388233333,71.0927616667,6.7,672398.700648,4689517.54777,42,T
1581296423304697990,0,0,GPS data,42.3388233333,71.0927616667,6.7,672398.700648,4689517.54777,42,T
1581296424313627004,0,0,GPS data,42.3388233333,71.0927616667,6.7,672398.700648,4689517.54777,42,T
1581296425306909084,0,0,GPS data,42.338825,71.0927583333,6.8,672398.421486,4689517.72608,42,T
1581296426305897951,0,0,GPS data,42.33883,71.0927416667,7.0,672397.034788,4689518.2475,42,T
1581296427301662921,0,0,GPS data,42.33884,71.09271,7.1,672394.398696,4689519.29372,42,T
1581296428302541971,0,0,GPS data,42.3388416667,71.0926583333,7.2,672390.137738,4689519.37404,42,T
1581296429299073934,0,0,GPS data,42.3388633333,71.0925933333,7.3,672384.723699,4689521.64818,42,T
1581296430299221038,0,0,GPS data,42.3388883333,71.0925133333,7.5,672378.064827,4689524.26205,42,T
1581296431297739028,0,0,GPS data,42.3389083333,71.0924166667,7.4,672370.04659,4689526.28693,42,T
1581296432304583072,0,0,GPS data,42.3389283333,71.092305,7.6,672360.792631,4689528.28141,42,T
1581296433297213077,0,0,GPS data,42.3389733333,71.0921933333,7.9,672351.470372,4689533.05197,42,T
1581296434304220914,0,0,GPS data,42.3390183333,71.0920733333,8.1,672341.461612,4689537.80565,42,T
1581296435304003000,0,0,GPS data,42.339065,71.0919466667,8.2,672330.899102,4689542.7309,42,T
1581296436299266099,0,0,GPS data,42.3391183333,71.0918183333,8.3,672320.181093,4689548.39307,42,T
1581296437297457933,0,0,GPS data,42.339175,71.0916866667,8.5,672309.179391,4689554.41864,42,T
1581296438303589105,0,0,GPS data,42.339235,71.091555,8.7,672298.168605,4689560.81437,42,T
1581296439304436922,0,0,GPS data,42.3393,71.0914266667,8.9,672287.418787,4689567.77209,42,T
1581296440297516107,0,0,GPS data,42.3393583333,71.091295,9.0,672276.412594,4689573.98278,42,T
1581296441297693967,0,0,GPS data,42.339415,71.0911733333,9.1,672266.234784,4689580.02868,42,T
1581296442298156023,0,0,GPS data,42.3394583333,71.0910733333,9.2,672257.878328,4689584.63792,42,T
1581296443298474073,0,0,GPS data,42.33949,71.090995,9.3,672251.338665,4689587.99557,42,T
1581296444297859907,0,0,GPS data,42.339515,71.0909333333,9.3,672246.190231,4689590.64671,42,T
1581296445297373056,0,0,GPS data,42.3395433333,71.0908916667,9.4,672242.68032,4689593.7085,42,T
1581296446297631978,0,0,GPS data,42.3395733333,71.0908666667,9.5,672240.538879,4689596.98913,42,T
1581296447298578977,0,0,GPS data,42.3395866667,71.0908483333,9.5,672238.992154,4689598.43256,42,T
1581296448299125909,0,0,GPS data,42.339595,71.0908433333,9.5,672238.557495,4689599.34779,42,T
1581296449298425912,0,0,GPS data,42.339595,71.0908416667,9.5,672238.420193,4689599.34441,42,T
1581296450298376083,0,0,GPS data,42.339595,71.0908416667,9.5,672238.420193,4689599.34441,42,T
1581296451298738956,0,0,GPS data,42.339595,71.0908416667,9.5,672238.420193,4689599.34441,42,T
1581296452298609972,0,0,GPS data,42.3395966667,71.0908416667,9.5,672238.415642,4689599.52948,42,T
1581296453298439979,0,0,GPS data,42.3395966667,71.0908416667,9.5,672238.415642,4689599.52948,42,T
1581296454299484014,0,0,GPS data,42.3395966667,71.0908433333,9.5,672238.552944,4689599.53286,42,T
1581296455298945903,0,0,GPS data,42.3395983333,71.0908433333,9.5,672238.548393,4689599.71793,42,T
1581296456298521995,0,0,GPS data,42.3395983333,71.0908433333,9.5,672238.548393,4689599.71793,42,T
1581296457298511028,0,0,GPS data,42.3395983333,71.0908433333,9.6,672238.548393,4689599.71793,42,T
1581296458298346042,0,0,GPS data,42.3396,71.0908433333,9.6,672238.543842,4689599.903,42,T
1581296459298379898,0,0,GPS data,42.3396,71.0908433333,9.6,672238.543842,4689599.903,42,T
1581296460299320936,0,0,GPS data,42.339595,71.0908433333,9.7,672238.557495,4689599.34779,42,T
1581296461298466920,0,0,GPS data,42.339595,71.0908333333,9.7,672237.733685,4689599.32753,42,T
1581296462297781944,0,0,GPS data,42.339605,71.09081,9.8,672235.784157,4689600.39069,42,T
1581296463298589944,0,0,GPS data,42.33962,71.09077,9.8,672232.447962,4689601.9753,42,T
1581296464297671079,0,0,GPS data,42.3396366667,71.090725,9.8,672228.695314,4689603.73486,42,T
1581296465297324895,0,0,GPS data,42.3396466667,71.0906883333,9.9,672225.647376,4689604.77101,42,T
1581296466299621105,0,0,GPS data,42.339645,71.090655,9.9,672222.905895,4689604.51842,42,T
1581296467300509929,0,0,GPS data,42.3396416667,71.0906233333,10.1,672220.306266,4689604.08414,42,T
1581296468300889968,0,0,GPS data,42.3396366667,71.0905933333,10.2,672217.848489,4689603.46816,42,T
1581296469300898075,0,0,GPS data,42.33962,71.0905616667,10.4,672215.28526,4689601.55332,42,T
1581296470299856901,0,0,GPS data,42.3396,71.0905333333,10.1,672213.005734,4689599.27508,42,T
1581296471299797058,0,0,GPS data,42.3395666667,71.09051,10.0,672211.174511,4689595.52641,42,T
1581296472299715042,0,0,GPS data,42.33952,71.0904833333,10.0,672209.105082,4689590.29042,42,T
1581296473296500921,0,0,GPS data,42.33946,71.09045,9.8,672206.522841,4689583.56036,42,T
1581296474297328948,0,0,GPS data,42.3393866667,71.0904133333,9.6,672203.70239,4689575.34299,42,T
1581296475296329021,0,0,GPS data,42.3392933333,71.090375,9.6,672200.799225,4689564.9014,42,T
1581296476302660942,0,0,GPS data,42.3392033333,71.0903366667,9.5,672197.88695,4689554.82995,42,T
1581296477303231954,0,0,GPS data,42.339125,71.0902966667,9.7,672194.805518,4689546.05062,42,T
1581296478297837972,0,0,GPS data,42.339045,71.0902566667,9.7,672191.728626,4689537.08622,42,T
1581296479297599077,0,0,GPS data,42.338965,71.0902166667,9.3,672188.651725,4689528.12182,42,T
1581296480293713092,0,0,GPS data,42.338885,71.0901783333,8.9,672185.712119,4689519.1608,42,T
1581296481296751976,0,0,GPS data,42.338805,71.09014,8.7,672182.772504,4689510.19978,42,T
1581296482296907901,0,0,GPS data,42.33872,71.0901,9.6,672179.709225,4689500.68018,42,T
1581296483295754909,0,0,GPS data,42.3386466667,71.0900616667,9.9,672176.751398,4689492.45944,42,T
1581296484299060106,0,0,GPS data,42.3385733333,71.0900283333,10.1,672174.205474,4689484.24884,42,T
1581296485298361063,0,0,GPS data,42.3384983333,71.089995,10.1,672171.664093,4689475.85316,42,T
1581296486297528028,0,0,GPS data,42.3384066667,71.0899583333,11.3,672168.893584,4689465.60003,42,T
1581296487294370889,0,0,GPS data,42.3383166667,71.089925,12.1,672166.393125,4689455.53872,42,T
1581296488296991109,0,0,GPS data,42.338225,71.089895,13.0,672164.171817,4689445.29909,42,T
1581296489301687002,0,0,GPS data,42.338145,71.0898733333,13.8,672162.605185,4689436.37183,42,T
1581296490299027919,0,0,GPS data,42.33807,71.089855,15.1,672161.299513,4689428.00653,42,T
1581296491298937082,0,0,GPS data,42.3379983333,71.089835,16.7,672159.847435,4689420.00799,42,T
1581296492298002958,0,0,GPS data,42.337925,71.0898066667,18.0,672157.713375,4689411.80752,42,T
1581296493298125028,0,0,GPS data,42.33785,71.0897783333,18.8,672155.583858,4689403.42197,42,T
1581296494295391082,0,0,GPS data,42.3377616667,71.0897616667,18.1,672154.45186,4689393.57948,42,T
1581296495298698902,0,0,GPS data,42.3376983333,71.089745,17.0,672153.251635,4689386.51306,42,T
1581296496300882101,0,0,GPS data,42.3376316667,71.089725,16.2,672151.785891,4689379.06974,42,T
1581296497298728942,0,0,GPS data,42.3375633333,71.0897066667,15.5,672150.461998,4689371.44472,42,T
1581296498298820972,0,0,GPS data,42.3375,71.0896866667,15.5,672148.987151,4689364.37155,42,T
1581296499299247026,0,0,GPS data,42.33742,71.0896766667,14.6,672148.381619,4689355.46791,42,T
1581296500302437067,0,0,GPS data,42.3373566667,71.089675,13.6,672148.417137,4689348.43185,42,T
1581296501304373979,0,0,GPS data,42.337305,71.0896866667,13.1,672149.519272,4689342.71828,42,T
1581296502299067974,0,0,GPS data,42.3372633333,71.089705,13.7,672151.143347,4689338.12863,42,T
1581296503299746036,0,0,GPS data,42.3372366667,71.0897283333,13.9,672153.138411,4689335.21474,42,T
1581296504298450946,0,0,GPS data,42.3372183333,71.0897533333,13.9,672155.248043,4689333.22958,42,T
1581296505300302028,0,0,GPS data,42.3372066667,71.089775,13.5,672157.064869,4689331.97795,42,T
1581296506300136089,0,0,GPS data,42.3372,71.0897883333,13.1,672158.181517,4689331.26467,42,T
1581296507306209087,0,0,GPS data,42.3371983333,71.089795,12.7,672158.735293,4689331.09309,42,T
